INDEX VERSION 1.4+C:\udemySpringHibernateMVC\.metadata\.plugins\org.eclipse.wst.jsdt.core\indexes
3617312122.index
1404793108.index
1714962165.index
732856975.index
3404749507.index
1806765773.index
337716158.index
3839389487.index
237508677.index
337716158.index
